{
  "dist/app.js": "dist/app-568f64bdd0.js",
  "dist/bootgrid.js": "dist/bootgrid-acbc545ec1.js",
  "dist/dark.css": "dist/dark-5b2c573570.css",
  "dist/inline_player.js": "dist/inline_player-bdec78d590.js",
  "dist/lib/autosize/autosize.min.js": "dist/lib/autosize/autosize-ad0656589d.min.js",
  "dist/lib/bootstrap-notify/bootstrap-notify.min.js": "dist/lib/bootstrap-notify/bootstrap-notify-a02f92a499.min.js",
  "dist/lib/bootstrap/bootstrap.bundle.min.js": "dist/lib/bootstrap/bootstrap-a454220fc0.bundle.min.js",
  "dist/lib/chartjs/Chart.min.css": "dist/lib/chartjs/Chart-7d8693e997.min.css",
  "dist/lib/chartjs/Chart.min.js": "dist/lib/chartjs/Chart-b235b564de.min.js",
  "dist/lib/chartjs/chartjs-plugin-colorschemes.min.js": "dist/lib/chartjs/chartjs-plugin-colorschemes-15d3cd8669.min.js",
  "dist/lib/chosen/chosen.jquery.min.js": "dist/lib/chosen/chosen-3e9f1dcb9c.jquery.min.js",
  "dist/lib/chosen/chosen.min.css": "dist/lib/chosen/chosen-d7ca5ca944.min.css",
  "dist/lib/clipboard/clipboard.min.js": "dist/lib/clipboard/clipboard-f06c52bfdd.min.js",
  "dist/lib/codemirror/codemirror.css": "dist/lib/codemirror/codemirror-288352df06.css",
  "dist/lib/codemirror/codemirror.js": "dist/lib/codemirror/codemirror-88f43bb479.js",
  "dist/lib/codemirror/css.js": "dist/lib/codemirror/css-4e1489f478.js",
  "dist/lib/codemirror/material.css": "dist/lib/codemirror/material-32926db483.css",
  "dist/lib/daterangepicker/daterangepicker.css": "dist/lib/daterangepicker/daterangepicker-55e1d56082.css",
  "dist/lib/daterangepicker/daterangepicker.js": "dist/lib/daterangepicker/daterangepicker-eea458a9a4.js",
  "dist/lib/fancybox/jquery.fancybox.min.css": "dist/lib/fancybox/jquery-a2d4258429.fancybox.min.css",
  "dist/lib/fancybox/jquery.fancybox.min.js": "dist/lib/fancybox/jquery-49a6b4d019.fancybox.min.js",
  "dist/lib/flowjs/flow.min.js": "dist/lib/flowjs/flow-8c41da7745.min.js",
  "dist/lib/fullcalendar/fullcalendar.min.css": "dist/lib/fullcalendar/fullcalendar-7359f6ebc5.min.css",
  "dist/lib/fullcalendar/fullcalendar.min.js": "dist/lib/fullcalendar/fullcalendar-846152635d.min.js",
  "dist/lib/fullcalendar/locale-all.js": "dist/lib/fullcalendar/locale-all-c61d63888b.js",
  "dist/lib/jquery/jquery.min.js": "dist/lib/jquery/jquery-220afd743d.min.js",
  "dist/lib/leaflet/leaflet.css": "dist/lib/leaflet/leaflet-6b7939304e.css",
  "dist/lib/leaflet/leaflet.js": "dist/lib/leaflet/leaflet-762a6b64eb.js",
  "dist/lib/lodash/lodash.min.js": "dist/lib/lodash/lodash-62acde2a26.min.js",
  "dist/lib/material-icons/material-icons.css": "dist/lib/material-icons/material-icons-6b78e76e7f.css",
  "dist/lib/moment-timezone/moment-timezone-with-data-10-year-range.min.js": "dist/lib/moment-timezone/moment-timezone-with-data-10-year-range-b8864b90a3.min.js",
  "dist/lib/moment/locales.min.js": "dist/lib/moment/locales-473153bad8.min.js",
  "dist/lib/moment/moment.min.js": "dist/lib/moment/moment-761502841c.min.js",
  "dist/lib/roboto-fontface/css/roboto/roboto-fontface.css": "dist/lib/roboto-fontface/css/roboto/roboto-fontface-691f1edc86.css",
  "dist/lib/sortable/Sortable.min.js": "dist/lib/sortable/Sortable-e0005b2a86.min.js",
  "dist/lib/store/store.min.js": "dist/lib/store/store-2a66d57f0e.min.js",
  "dist/lib/sweetalert/sweetalert.min.js": "dist/lib/sweetalert/sweetalert-f3b8ce97ff.min.js",
  "dist/lib/vue-i18n/vue-i18n.min.js": "dist/lib/vue-i18n/vue-i18n-40a1d42f5a.min.js",
  "dist/lib/vue/vue.js": "dist/lib/vue/vue-d5c38adb09.js",
  "dist/lib/vue/vue.min.js": "dist/lib/vue/vue-17e942ea08.min.js",
  "dist/lib/zxcvbn/zxcvbn.js": "dist/lib/zxcvbn/zxcvbn-9cf6916dc0.js",
  "dist/light.css": "dist/light-ec982ea388.css",
  "dist/material.js": "dist/material-c652fed16a.js",
  "dist/radio_player.js": "dist/radio_player-1f9ed56920.js",
  "dist/webcaster.js": "dist/webcaster-60f00ddbcb.js",
  "dist/zxcvbn.js": "dist/zxcvbn-82c9dedeea.js"
}